[gd_scene load_steps=4 format=2]

[ext_resource path="res://tournament/WinnerAnnouncement.gd" type="Script" id=1]
[ext_resource path="res://tournament/WinnerAnnouncementControl.tscn" type="PackedScene" id=2]

[sub_resource type="Curve2D" id=1]
_data = {
"points": PoolVector2Array( 0, 0, 0, 0, 1910, 1090, 0, 0, 0, 0, 1870, 1160, 0, 0, 0, 0, 1630, 1160, 0, 0, 0, 0, 1460, 1120, 0, 0, 0, 0, 1240, 1160, 0, 0, 0, 0, 1000, 1160, 0, 0, 0, 0, 730, 1160, 0, 0, 0, 0, 670, 1130, 0, 0, 0, 0, 630, 1160, 0, 0, 0, 0, 550, 1190, 0, 0, 0, 0, 480, 1140, 0, 0, 0, 0, 300, 1190, 0, 0, 0, 0, 230, 1140, 0, 0, 0, 0, 150, 1150, 0, 0, 0, 0, 110, 1180, 0, 0, 0, 0, 40, 1140, 0, 0, 0, 0, 0, 1140, 0, 0, 0, 0, 0, 1090, 0, 0, 0, 0, 180, 1110, 0, 0, 0, 0, 330, 1160, 0, 0, 0, 0, 630, 1150, 0, 0, 0, 0, 390, 1100, 0, 0, 0, 0, 900, 1140, 0, 0, 0, 0, 1090, 1110, 0, 0, 0, 0, 1170, 1150, 0, 0, 0, 0, 1300, 1110, 0, 0, 0, 0, 1400, 1140, 0, 0, 0, 0, 1620, 1110, 0, 0, 0, 0, 1740, 1130, 0, 0, 0, 0, 1910, 1090 )
}

[node name="WinnerAnnouncement" type="Node"]

[node name="Area2D" type="Area2D" parent="."]
script = ExtResource( 1 )

[node name="WinnerAnnouncement" parent="Area2D" instance=ExtResource( 2 )]

[node name="FireworkTimer" type="Timer" parent="Area2D"]
wait_time = 0.5
autostart = true

[node name="FireworkPath" type="Path2D" parent="Area2D"]
curve = SubResource( 1 )

[node name="FireworkSpawn" type="PathFollow2D" parent="Area2D/FireworkPath"]
position = Vector2( 1910, 1090 )
rotation = 2.08997

[node name="CollisionPolygon2D" type="CollisionPolygon2D" parent="Area2D"]
position = Vector2( 0, 241 )
polygon = PoolVector2Array( 40, 200, 160, 170, 340, 120, 530, 210, 680, 370, 740, 220, 930, 220, 1040, 190, 1200, 140, 1460, 210, 1570, 370, 1730, 240, 1840, 170, 1980, 300, 1750, 450, 1390, 520, 1360, 370, 1100, 310, 820, 390, 660, 550, 520, 440, 410, 330, 300, 260, 150, 350, -70, 340 )
[connection signal="body_exited" from="Area2D" to="Area2D" method="_on_Area2D_body_exited"]
[connection signal="timeout" from="Area2D/FireworkTimer" to="Area2D" method="_on_FireworkTimer_timeout"]
