[gd_resource type="TileSet" load_steps=5 format=2]

[ext_resource path="res://assets/2d_tiles.png" type="Texture" id=1]
[ext_resource path="res://assets/custom/AnnouncementBackground.png" type="Texture" id=2]

[sub_resource type="ConvexPolygonShape2D" id=1]
points = PoolVector2Array( 2, 2, 14, 2, 14, 14, 2, 14 )

[sub_resource type="ConvexPolygonShape2D" id=2]
points = PoolVector2Array( 0, 0, 16, 0, 16, 1, 0, 1 )

[resource]
0/name = "2d_tiles.png 0"
0/texture = ExtResource( 1 )
0/tex_offset = Vector2( 0, 0 )
0/modulate = Color( 1, 1, 1, 1 )
0/region = Rect2( 128, 64, 16, 16 )
0/tile_mode = 0
0/occluder_offset = Vector2( 0, 0 )
0/navigation_offset = Vector2( 0, 0 )
0/shapes = [ {
"autotile_coord": Vector2( 0, 0 ),
"one_way": true,
"one_way_margin": 1.0,
"shape": SubResource( 1 ),
"shape_transform": Transform2D( 1, 0, 0, 1, 0, 0 )
} ]
0/z_index = 0
1/name = "2d_tiles.png 1"
1/texture = ExtResource( 1 )
1/tex_offset = Vector2( 0, 0 )
1/modulate = Color( 1, 1, 1, 1 )
1/region = Rect2( 112, 0, 48, 16 )
1/tile_mode = 1
1/autotile/bitmask_mode = 2
1/autotile/bitmask_flags = [ Vector2( 0, 0 ), 48, Vector2( 1, 0 ), 56, Vector2( 2, 0 ), 24 ]
1/autotile/icon_coordinate = Vector2( 1, 0 )
1/autotile/tile_size = Vector2( 16, 16 )
1/autotile/spacing = 0
1/autotile/occluder_map = [  ]
1/autotile/navpoly_map = [  ]
1/autotile/priority_map = [  ]
1/autotile/z_index_map = [ Vector3( 0, 0, 1 ) ]
1/occluder_offset = Vector2( 0, 0 )
1/navigation_offset = Vector2( 0, 0 )
1/shapes = [ {
"autotile_coord": Vector2( 0, 0 ),
"one_way": false,
"one_way_margin": 1.0,
"shape": SubResource( 2 ),
"shape_transform": Transform2D( 1, 0, 0, 1, 0, 0 )
} ]
1/z_index = 0
2/name = "AnnouncementBackground.png 2"
2/texture = ExtResource( 2 )
2/tex_offset = Vector2( 0, 0 )
2/modulate = Color( 1, 1, 1, 1 )
2/region = Rect2( 0, 0, 32, 16 )
2/tile_mode = 0
2/occluder_offset = Vector2( 0, 0 )
2/navigation_offset = Vector2( 0, 0 )
2/shapes = [  ]
2/z_index = 1
3/name = "AnnouncementBackground.png 3"
3/texture = ExtResource( 2 )
3/tex_offset = Vector2( 0, 0 )
3/modulate = Color( 1, 1, 1, 1 )
3/region = Rect2( 32, 0, 16, 16 )
3/tile_mode = 0
3/occluder_offset = Vector2( 0, 0 )
3/navigation_offset = Vector2( 0, 0 )
3/shapes = [  ]
3/z_index = 1
4/name = "AnnouncementBackground.png 4"
4/texture = ExtResource( 2 )
4/tex_offset = Vector2( 0, 0 )
4/modulate = Color( 1, 1, 1, 1 )
4/region = Rect2( 0, 16, 16, 16 )
4/tile_mode = 0
4/occluder_offset = Vector2( 0, 0 )
4/navigation_offset = Vector2( 0, 0 )
4/shapes = [  ]
4/z_index = 1
5/name = "AnnouncementBackground.png 5"
5/texture = ExtResource( 2 )
5/tex_offset = Vector2( 0, 0 )
5/modulate = Color( 1, 1, 1, 1 )
5/region = Rect2( 16, 16, 32, 16 )
5/tile_mode = 0
5/occluder_offset = Vector2( 0, 0 )
5/navigation_offset = Vector2( 0, 0 )
5/shapes = [  ]
5/z_index = 1
6/name = "AnnouncementBackground.png 6"
6/texture = ExtResource( 2 )
6/tex_offset = Vector2( 0, 0 )
6/modulate = Color( 1, 1, 1, 1 )
6/region = Rect2( 64, 0, 32, 32 )
6/tile_mode = 1
6/autotile/bitmask_mode = 1
6/autotile/bitmask_flags = [ Vector2( 0, 0 ), 432, Vector2( 0, 1 ), 54, Vector2( 1, 0 ), 216, Vector2( 1, 1 ), 27 ]
6/autotile/icon_coordinate = Vector2( 0, 0 )
6/autotile/tile_size = Vector2( 16, 16 )
6/autotile/spacing = 0
6/autotile/occluder_map = [  ]
6/autotile/navpoly_map = [  ]
6/autotile/priority_map = [  ]
6/autotile/z_index_map = [  ]
6/occluder_offset = Vector2( 0, 0 )
6/navigation_offset = Vector2( 0, 0 )
6/shapes = [  ]
6/z_index = 0
